Sampling Methods
…
Sampling with replacment, sample larger than original data

starwars_srswr2 <- starwars %>%                           
  sample_n(size = 200,
           replace = TRUE)
starwars_srswr2                                          

# A tibble: 200 × 11
   name     height  mass hair_color skin_color eye_color birth_year sex   gender
   <chr>     <int> <dbl> <chr>      <chr>      <chr>          <dbl> <chr> <chr> 
 1 Jocasta…    167    NA white      fair       blue              NA fema… femin…
 2 Ric Olié    183    NA brown      fair       blue              NA male  mascu…
 3 IG-88       200   140 none       metal      red               15 none  mascu…
 4 Jocasta…    167    NA white      fair       blue              NA fema… femin…
 5 IG-88       200   140 none       metal      red               15 none  mascu…
 6 Cordé       157    NA brown      light      brown             NA <NA>  <NA>  
 7 Poe Dam…     NA    NA brown      light      brown             NA male  mascu…
 8 Palpati…    170    75 grey       pale       yellow            82 male  mascu…
 9 Padmé A…    185    45 brown      light      brown             46 fema… femin…
10 Rey          NA    NA brown      light      hazel             NA fema… femin…
# ℹ 190 more rows
# ℹ 2 more variables: homeworld <chr>, species <chr>
…
Stratified Sampling

table(starwars$sex)                                      

        female hermaphroditic           male           none 
            16              1             60              6 

starwars_strat <- starwars %>%                          
  group_by(sex) %>%
  sample_frac(size = 0.3)
starwars_strat                                           

# A tibble: 26 × 11
# Groups:   sex [4]
   name     height  mass hair_color skin_color eye_color birth_year sex   gender
   <chr>     <int> <dbl> <chr>      <chr>      <chr>          <dbl> <chr> <chr> 
 1 Ayla Se…    178  55   none       blue       hazel             48 fema… femin…
 2 Luminar…    170  56.2 black      yellow     blue              58 fema… femin…
 3 Jocasta…    167  NA   white      fair       blue              NA fema… femin…
 4 Shmi Sk…    163  NA   black      fair       brown             72 fema… femin…
 5 Taun We     213  NA   none       grey       black             NA fema… femin…
 6 Finn         NA  NA   black      dark       dark              NA male  mascu…
 7 Rugor N…    206  NA   none       green      orange            NA male  mascu…
 8 Lobot       175  79   none       light      blue              37 male  mascu…
 9 Jar Jar…    196  66   none       orange     orange            52 male  mascu…
10 Qui-Gon…    193  89   brown      fair       blue              92 male  mascu…
# ℹ 16 more rows
# ℹ 2 more variables: homeworld <chr>, species <chr>
…
